%YAML 1.1
%TAG !u! tag:unity3d.com,2011:
--- !u!1045 &1
EditorBuildSettings:
  m_ObjectHideFlags: 0
  serializedVersion: 2
  m_Scenes:
  - enabled: 1
    path: Assets/Scenes/Start Menu.unity
    guid: c908fc32069f4834696951fec65ef4c5
  - enabled: 1
    path: Assets/Scenes/Room1.unity
    guid: d62ddf4132b819c4e9ac9a3e91f1dc51
  - enabled: 1
    path: Assets/Scenes/Room2.unity
    guid: 23391e866959b174ab198821a56e5d48
  - enabled: 1
    path: Assets/Scenes/Room3.unity
    guid: 2cda990e2423bbf4892e6590ba056729
  - enabled: 1
    path: Assets/Scenes/Room4.unity
    guid: 56b81189f168e314c9bf78ddd38287c2
  - enabled: 1
    path: Assets/Scenes/End Menu.unity
    guid: 237e904b27ce2984982cacdda62e5677
  - enabled: 1
    path: Assets/Scenes/WinMenu.unity
    guid: 87ee12979fd38294ab623da420ac49de
  m_configObjects: {}
